{
  "imports": {
    "single-spa": "https://cdn.jsdelivr.net/npm/single-spa@5.9.0/lib/system/single-spa.min.js",
    "react": "https://cdn.jsdelivr.net/npm/react@18.2.0/umd/react.production.min.js",
    "react-dom": "https://cdn.jsdelivr.net/npm/react-dom@18.2.0/umd/react-dom.production.min.js",
    "@sspa/styleguide": "https://curritl.gitlab.io/sspa-styleguide/sspa-styleguide.js",
    "@sspa/top-nav": "https://curritl.gitlab.io/sspa-top-nav/sspa-top-nav.js",
    "@sspa/content": "https://curritl.gitlab.io/sspa-content/sspa-content.js"
  }
}
